{
  "kind": "collectionType",
  "collectionName": "reviews",
  "info": {
    "name": "Review"
  },
  "options": {
    "increments": true,
    "timestamps": true
  },
  "attributes": {
    "text": {
      "type": "text"
    },
    "starts": {
      "type": "integer",
      "max": 5,
      "min": 1
    },
    "restaurant": {
      "via": "reviews",
      "model": "restaurants"
    }
  }
}
